%YAML 1.1
%TAG !u! tag:unity3d.com,2011:
--- !u!74 &7400000
AnimationClip:
  m_ObjectHideFlags: 0
  m_CorrespondingSourceObject: {fileID: 0}
  m_PrefabInstance: {fileID: 0}
  m_PrefabAsset: {fileID: 0}
  m_Name: fogAnim1
  serializedVersion: 6
  m_Legacy: 0
  m_Compressed: 0
  m_UseHighQualityCurve: 1
  m_RotationCurves: []
  m_CompressedRotationCurves: []
  m_EulerCurves: []
  m_PositionCurves: []
  m_ScaleCurves: []
  m_FloatCurves: []
  m_PPtrCurves:
  - curve:
    - time: 0
      value: {fileID: 21300000, guid: ab92829454ff1c94a94c32cb98e83368, type: 3}
    - time: 0.13333334
      value: {fileID: 21300000, guid: 829517aabdbc4294089e545b41c5093e, type: 3}
    - time: 0.26666668
      value: {fileID: 21300000, guid: 1cc90fb978b5ea347a7e3152453fe22c, type: 3}
    - time: 0.4
      value: {fileID: 21300000, guid: d0a2dff1791be0c4ea55d33cbb7f2ad6, type: 3}
    - time: 0.53333336
      value: {fileID: 21300000, guid: b1874f3ec1d0546489815fffc45e1c80, type: 3}
    - time: 0.6666667
      value: {fileID: 21300000, guid: d892ed9c85206ba4f8b075987b7247eb, type: 3}
    - time: 0.8
      value: {fileID: 21300000, guid: 02b22ee50af9e5040a419f6529c9a331, type: 3}
    - time: 0.93333334
      value: {fileID: 21300000, guid: 72c495afa9ecd2543b8058ac5d9fef42, type: 3}
    - time: 1.0666667
      value: {fileID: 21300000, guid: 9edaeb65740c1c344af29786356aa089, type: 3}
    - time: 1.2
      value: {fileID: 21300000, guid: 6469c30bfaaf06e4bb36fbceabd330d8, type: 3}
    - time: 1.3333334
      value: {fileID: 21300000, guid: f33af45066843a848a48b51d1129770a, type: 3}
    - time: 1.4666667
      value: {fileID: 21300000, guid: dea9e4438515864469566085999e0b41, type: 3}
    - time: 1.6
      value: {fileID: 21300000, guid: 83a20a6ad5f03444ebe1c96f1a925f30, type: 3}
    - time: 1.7333333
      value: {fileID: 21300000, guid: feb17116388e82d45a35e9cf6f879ff1, type: 3}
    attribute: m_Sprite
    path: 
    classID: 212
    script: {fileID: 0}
  m_SampleRate: 60
  m_WrapMode: 0
  m_Bounds:
    m_Center: {x: 0, y: 0, z: 0}
    m_Extent: {x: 0, y: 0, z: 0}
  m_ClipBindingConstant:
    genericBindings:
    - serializedVersion: 2
      path: 0
      attribute: 0
      script: {fileID: 0}
      typeID: 212
      customType: 23
      isPPtrCurve: 1
    pptrCurveMapping:
    - {fileID: 21300000, guid: ab92829454ff1c94a94c32cb98e83368, type: 3}
    - {fileID: 21300000, guid: 829517aabdbc4294089e545b41c5093e, type: 3}
    - {fileID: 21300000, guid: 1cc90fb978b5ea347a7e3152453fe22c, type: 3}
    - {fileID: 21300000, guid: d0a2dff1791be0c4ea55d33cbb7f2ad6, type: 3}
    - {fileID: 21300000, guid: b1874f3ec1d0546489815fffc45e1c80, type: 3}
    - {fileID: 21300000, guid: d892ed9c85206ba4f8b075987b7247eb, type: 3}
    - {fileID: 21300000, guid: 02b22ee50af9e5040a419f6529c9a331, type: 3}
    - {fileID: 21300000, guid: 72c495afa9ecd2543b8058ac5d9fef42, type: 3}
    - {fileID: 21300000, guid: 9edaeb65740c1c344af29786356aa089, type: 3}
    - {fileID: 21300000, guid: 6469c30bfaaf06e4bb36fbceabd330d8, type: 3}
    - {fileID: 21300000, guid: f33af45066843a848a48b51d1129770a, type: 3}
    - {fileID: 21300000, guid: dea9e4438515864469566085999e0b41, type: 3}
    - {fileID: 21300000, guid: 83a20a6ad5f03444ebe1c96f1a925f30, type: 3}
    - {fileID: 21300000, guid: feb17116388e82d45a35e9cf6f879ff1, type: 3}
  m_AnimationClipSettings:
    serializedVersion: 2
    m_AdditiveReferencePoseClip: {fileID: 0}
    m_AdditiveReferencePoseTime: 0
    m_StartTime: 0
    m_StopTime: 1.75
    m_OrientationOffsetY: 0
    m_Level: 0
    m_CycleOffset: 0
    m_HasAdditiveReferencePose: 0
    m_LoopTime: 1
    m_LoopBlend: 0
    m_LoopBlendOrientation: 0
    m_LoopBlendPositionY: 0
    m_LoopBlendPositionXZ: 0
    m_KeepOriginalOrientation: 0
    m_KeepOriginalPositionY: 1
    m_KeepOriginalPositionXZ: 0
    m_HeightFromFeet: 0
    m_Mirror: 0
  m_EditorCurves: []
  m_EulerEditorCurves: []
  m_HasGenericRootTransform: 0
  m_HasMotionFloatCurves: 0
  m_Events: []
